{
    "KPlugin": {
        "Authors": [
            {
                "Email": "hein@kde.org",
                "Name": "Eike Hein",
                "Name[ar]": "Eike Hein",
                "Name[az]": "Eike Hein",
                "Name[be]": "Eike Hein",
                "Name[bg]": "Eike Hein",
                "Name[ca@valencia]": "Eike Hein",
                "Name[ca]": "Eike Hein",
                "Name[cs]": "Eike Hein",
                "Name[da]": "Eike Hein",
                "Name[de]": "Eike Hein",
                "Name[en_GB]": "Eike Hein",
                "Name[es]": "Eike Hein",
                "Name[et]": "Eike Hein",
                "Name[eu]": "Eike Hein",
                "Name[fi]": "Eike Hein",
                "Name[fr]": "Eike Hein",
                "Name[hu]": "Eike Hein",
                "Name[ia]": "Eike Hein",
                "Name[id]": "Eike Hein",
                "Name[ie]": "Eike Hein",
                "Name[is]": "Eike Hein",
                "Name[it]": "Eike Hein",
                "Name[ja]": "Eike Hein",
                "Name[ka]": "აიკე ჰაინი",
                "Name[ko]": "Eike Hein",
                "Name[lt]": "Eike Hein",
                "Name[nl]": "Eike Hein",
                "Name[nn]": "Eike Hein",
                "Name[pa]": "ਇਕੀ ਹੀਇਨ",
                "Name[pl]": "Eike Hein",
                "Name[pt]": "Eike Hein",
                "Name[pt_BR]": "Eike Hein",
                "Name[ro]": "Eike Hein",
                "Name[ru]": "Eike Hein",
                "Name[sk]": "Eike Hein",
                "Name[sl]": "Eike Hein",
                "Name[sv]": "Eike Hein",
                "Name[ta]": "எய்கே ஹைன்",
                "Name[tr]": "Eike Hein",
                "Name[uk]": "Eike Hein",
                "Name[vi]": "Eike Hein",
                "Name[x-test]": "xxEike Heinxx",
                "Name[zh_CN]": "Eike Hein",
                "Name[zh_TW]": "Eike Hein"
            }
        ],
        "BugReportUrl": "https://bugs.kde.org/enter_bug.cgi?product=plasmashell&component=Task%20Manager%20and%20Icons-Only%20Task%20Manager",
        "Category": "Windows and Tasks",
        "Description": "Modern dock-style window switcher displaying only icons",
        "Description[ar]": "مبدل النوافذ بنمط الإرساء حديث يعرض الأيقونات فقط",
        "Description[az]": "Yalnız nişanları göstərən müasir dok panel üslübunda pəncərə dəyişdirici",
        "Description[be]": "Сучасны пераключальнік вокнаў у стылі дока, які паказвае толькі значкі",
        "Description[bg]": "Модерен превключвател на прозорци в стил док, показващ само икони",
        "Description[ca@valencia]": "Commutador de finestres modern d'estil acoblador que mostra només les icones",
        "Description[ca]": "Commutador de finestres modern d'estil acoblador que mostra només les icones",
        "Description[da]": "Moderne dokagtig vinduesskifter der kun viser ikoner",
        "Description[en_GB]": "Modern dock-style window switcher displaying only icons",
        "Description[es]": "Selector de ventanas al estilo de panel de anclaje moderno que solo muestra iconos",
        "Description[et]": "Tänapäevane doki moodi aknavahetaja, mis näitab ainult ikoone",
        "Description[eu]": "Kai tankerako leiho aldatzaile modernoa ikonoak bakarrik erakusten dituena",
        "Description[fi]": "Nykyaikainen telakkamainen ikkunavaihto pelkästään kuvakkein",
        "Description[fr]": "Sélecteur moderne de fenêtres en panneau, affichant uniquement des icônes",
        "Description[ia]": "Moderne Commutator de fenestra de stilo dock monstrante solmente icones",
        "Description[id]": "Pengalih jendela gaya dock modern yang menampilkan ikon saja",
        "Description[is]": "Nútímalegur gluggaskiptir sem birtir eingöngu tákn",
        "Description[it]": "Moderno scambiatore di finestre in stile dock che mostra solo icone",
        "Description[ja]": "アイコンのみを表示するドックスタイルのモダンなウィンドウスイッチャー",
        "Description[ka]": "ფანჯრების თანამედროვე გადამრთველი, მხოლოდ ხატულების ჩვენებით",
        "Description[ko]": "아이콘만 표시하는 현대적인 독 스타일 창 전환기",
        "Description[lt]": "Šiuolaikinis doko stiliaus langų perjungiklis, atvaizduojantis tik piktogramas",
        "Description[nl]": "Moderne dock-stijl vensterschakelaar met tonen van alleen pictogrammen",
        "Description[nn]": "Moderne vindaugsbytar i dokkstil med berre ikon",
        "Description[pl]": "Nowoczesny przełącznik okien, wyświetlający tylko ikony w doku",
        "Description[pt]": "Selector de janelas acoplável e moderno que mostra apenas ícones",
        "Description[pt_BR]": "Seletor de janelas estilo dock moderno mostrando apenas ícones",
        "Description[ro]": "Comutator de ferestre clasic cu andocare, afișând doar pictograme",
        "Description[ru]": "Современный вариант панели задач, использующий только значки",
        "Description[sk]": "Moderný prepínač okien v štýle doku zobrazujúci iba ikony",
        "Description[sl]": "Moderni preklopnik oken, ki prikazuje samo ikone",
        "Description[sv]": "Modern fönsterbytare med dockningsliknande fönster som bara visar ikoner",
        "Description[ta]": "சின்னங்களை மட்டும் காட்டும் சாளர மாற்றி",
        "Description[tr]": "Çağdaş rıhtım tarzı, yalnızca simgeleri görüntüleyen pencere değiştiricisi",
        "Description[uk]": "Сучасний перемикач вікон у стилі панелі приладів із показом лише піктограм",
        "Description[vi]": "Trình chuyển cửa sổ phong cách giá hiện đại, hiển thị chỉ các biểu tượng",
        "Description[x-test]": "xxModern dock-style window switcher displaying only iconsxx",
        "Description[zh_CN]": "现代风格的仅显示图标的停靠栏式窗口切换器",
        "Description[zh_TW]": "現代的 dock 風格視窗切換器，只顯示圖示",
        "EnabledByDefault": true,
        "Icon": "preferences-system-windows",
        "Id": "org.kde.plasma.icontasks",
        "License": "GPL-2.0+",
        "Name": "Icons-only Task Manager",
        "Name[ar]": "مدير مهامّ بأيقونات فقط",
        "Name[az]": "Tapşırıq meneceri (Yalnız nişanlar)",
        "Name[be]": "Кіраўнік задач у выглядзе значкоў",
        "Name[bg]": "Мениджър на задачи (само икони)",
        "Name[bs]": "Ikone-samo Upravitelj Zadacima",
        "Name[ca@valencia]": "Gestor de tasques només amb icones",
        "Name[ca]": "Gestor de tasques només amb icones",
        "Name[cs]": "Správce úloh pouze s ikonami",
        "Name[da]": "Opgavelinje kun med ikoner",
        "Name[de]": "Fensterleiste nur mit Symbolen",
        "Name[el]": "Διαχειριστής εργασιών με εικονίδια μόνο",
        "Name[en_GB]": "Icons-only Task Manager",
        "Name[eo]": "Nur-piktograma Taskadministrilo",
        "Name[es]": "Gestor de tareas con solo iconos",
        "Name[et]": "Ainult ikoonidega tegumihaldur",
        "Name[eu]": "Ikono-soileko ataza-kudeatzailea",
        "Name[fi]": "Kuvake­tehtävienhallinta",
        "Name[fr]": "Gestionnaire de tâches par icônes",
        "Name[gl]": "Xestor de tarefas de só iconas",
        "Name[he]": "מנהל משימות של סמלים בלבד",
        "Name[hu]": "Ikonos feladatkezelő",
        "Name[ia]": "Gerente de carga a sol icone",
        "Name[id]": "Pengelola Tugas Hanya Ikon",
        "Name[is]": "Verkefnastjóri með táknum eingöngu",
        "Name[it]": "Gestore dei processi solo icone",
        "Name[ja]": "アイコンだけのタスクマネージャ",
        "Name[ka]": "მხოლოდ ხატულებიანი ამოცანების მმართველი",
        "Name[ko]": "아이콘 전용 작업 관리자",
        "Name[lt]": "Tik piktogramų užduočių tvarkytuvė",
        "Name[ml]": "ചിഹ്നങ്ങൾക്കായുള്ള ടാസ്ക് മാനേജര്‍",
        "Name[mr]": "फक्त-चिन्ह कार्य व्यवस्थापक",
        "Name[nb]": "Oppgavebehandler med bare ikoner",
        "Name[nds]": "Lüttbild-Opgavenpleger",
        "Name[nl]": "Takenbeheer met alleen pictogrammen",
        "Name[nn]": "Oppgåve­handsamar med berre ikon",
        "Name[pa]": "ਕੇਵਲ-ਆਈਕਾਨ ਟਾਸਕ ਮੈਨੇਜਰ",
        "Name[pl]": "Ikonowy przełącznik zadań",
        "Name[pt]": "Gestor de Tarefas por Ícones",
        "Name[pt_BR]": "Gerenciador de tarefas apenas com ícones",
        "Name[ro]": "Gestionar de sarcini numai cu pictograme",
        "Name[ru]": "Панель задач (только значки)",
        "Name[sk]": "Správca úloh iba s ikonami",
        "Name[sl]": "Upravljalnik opravil s samimi ikonami",
        "Name[sr@ijekavian]": "менаџер задатака само са иконама",
        "Name[sr@ijekavianlatin]": "menadžer zadataka samo sa ikonama",
        "Name[sr@latin]": "menadžer zadataka samo sa ikonama",
        "Name[sr]": "менаџер задатака само са иконама",
        "Name[sv]": "Aktivitetshanterare med bara ikoner",
        "Name[ta]": "சின்னங்களை மட்டும் கொண்ட பணி மேலாளர்",
        "Name[tr]": "Simgesel Görev Yöneticisi",
        "Name[uk]": "Керування задачами лише за допомогою піктограм",
        "Name[vi]": "Trình quản lí tác vụ chỉ dùng biểu tượng",
        "Name[x-test]": "xxIcons-only Task Managerxx",
        "Name[zh_CN]": "图标任务管理器",
        "Name[zh_TW]": "只有圖示的工作管理員",
        "ServiceTypes": [
            "Plasma/Applet"
        ],
        "Version": "3.0",
        "Website": "https://userbase.kde.org/Plasma/Tasks"
    },
    "X-Plasma-API": "declarativeappletscript",
    "X-Plasma-MainScript": "ui/main.qml",
    "X-Plasma-Provides": [
        "org.kde.plasma.multitasking"
    ],
    "X-Plasma-RootPath": "org.kde.plasma.taskmanager"
}
